\relax 
\providecommand\hyper@newdestlabel[2]{}
\providecommand\HyperFirstAtBeginDocument{\AtBeginDocument}
\HyperFirstAtBeginDocument{\ifx\hyper@anchor\@undefined
\global\let\oldcontentsline\contentsline
\gdef\contentsline#1#2#3#4{\oldcontentsline{#1}{#2}{#3}}
\global\let\oldnewlabel\newlabel
\gdef\newlabel#1#2{\newlabelxx{#1}#2}
\gdef\newlabelxx#1#2#3#4#5#6{\oldnewlabel{#1}{{#2}{#3}}}
\AtEndDocument{\ifx\hyper@anchor\@undefined
\let\contentsline\oldcontentsline
\let\newlabel\oldnewlabel
\fi}
\fi}
\global\let\hyper@last\relax 
\gdef\HyperFirstAtBeginDocument#1{#1}
\providecommand\HyField@AuxAddToFields[1]{}
\providecommand\HyField@AuxAddToCoFields[2]{}
\citation{Zhou:2016:MASG}
\citation{Zhou:2016:MASG}
\citation{Zhou:2016:MASG}
\@writefile{toc}{\contentsline {section}{\numberline {1}Introduction}{2}{section.1}}
\@writefile{toc}{\contentsline {subsection}{\numberline {1.1}Need for 3D Snap Rounding}{2}{subsection.1.1}}
\@writefile{lof}{\contentsline {figure}{\numberline {1}{\ignorespaces Example of intersection of four icosahedra. Image from Zhou et al. 2016 \cite  {Zhou:2016:MASG}.\relax }}{2}{figure.caption.1}}
\providecommand*\caption@xref[2]{\@setref\relax\@undefined{#1}}
\newlabel{icosohedra}{{1}{2}{Example of intersection of four icosahedra. Image from Zhou et al. 2016 \cite {Zhou:2016:MASG}.\relax }{figure.caption.1}{}}
\@writefile{toc}{\contentsline {subsection}{\numberline {1.2}Formal Statement}{2}{subsection.1.2}}
\citation{milenkovic90a}
\citation{greene1986finite,goodrich1997snap,guibas1998rounding,hobby1999practical,hershberger2013stable,halperin2002iterated,de2007intersection,PACKER2008231,Hershberger2008}
\citation{fortune1999vertex}
\citation{devillers:hal-01727375}
\@writefile{lof}{\contentsline {figure}{\numberline {2}{\ignorespaces Example of necessary collapsing if the Hausdorff distance is bounded.\relax }}{3}{figure.caption.2}}
\newlabel{collapse}{{2}{3}{Example of necessary collapsing if the Hausdorff distance is bounded.\relax }{figure.caption.2}{}}
\@writefile{toc}{\contentsline {subsection}{\numberline {1.3}2D Snap Rounding}{3}{subsection.1.3}}
\newlabel{2Dsnap}{{1.3}{3}{2D Snap Rounding}{subsection.1.3}{}}
\@writefile{lof}{\contentsline {figure}{\numberline {3}{\ignorespaces Input of segments for 2D snap. \newline  \relax }}{3}{figure.caption.3}}
\newlabel{snap2D_1}{{3}{3}{Input of segments for 2D snap. \newline \relax }{figure.caption.3}{}}
\@writefile{lof}{\contentsline {figure}{\numberline {4}{\ignorespaces We label \textit  {hot} all pixels that contain an endpoint of a segment or an intersection.\relax }}{3}{figure.caption.3}}
\newlabel{snap2D_2}{{4}{3}{We label \textit {hot} all pixels that contain an endpoint of a segment or an intersection.\relax }{figure.caption.3}{}}
\@writefile{lof}{\contentsline {figure}{\numberline {5}{\ignorespaces We split all edges that intersect go through a \textit  {hot} pixel.\relax }}{3}{figure.caption.4}}
\newlabel{snap2D_3}{{5}{3}{We split all edges that intersect go through a \textit {hot} pixel.\relax }{figure.caption.4}{}}
\@writefile{lof}{\contentsline {figure}{\numberline {6}{\ignorespaces We can round safely. \newline  \relax }}{3}{figure.caption.4}}
\newlabel{snap2D_4}{{6}{3}{We can round safely. \newline \relax }{figure.caption.4}{}}
\citation{Zhou:2016:MASG}
\citation{fortune1999vertex}
\citation{devillers:hal-01727375}
\@writefile{toc}{\contentsline {subsection}{\numberline {1.4}3D Snap Rounding}{4}{subsection.1.4}}
\@writefile{lof}{\contentsline {figure}{\numberline {7}{\ignorespaces Subdividing faces to avoid vertex-face traversing requires creating new edges that can induce new intersections.\relax }}{4}{figure.caption.5}}
\newlabel{intersection}{{7}{4}{Subdividing faces to avoid vertex-face traversing requires creating new edges that can induce new intersections.\relax }{figure.caption.5}{}}
\@writefile{toc}{\contentsline {section}{\numberline {2}3D Snap Rounding Algorithm}{4}{section.2}}
\@writefile{toc}{\contentsline {subsection}{\numberline {2.1}Introduction}{4}{subsection.2.1}}
\@writefile{toc}{\contentsline {subsection}{\numberline {2.2}Step 1: Collapse the faces that are close to one another}{4}{subsection.2.2}}
\@writefile{lof}{\contentsline {figure}{\numberline {8}{\ignorespaces Projection of Step 1, the red part is the projected part, the orange parts are walls created to keep the projection of $F_i$ connected.\relax }}{5}{figure.caption.6}}
\newlabel{projection1}{{8}{5}{Projection of Step 1, the red part is the projected part, the orange parts are walls created to keep the projection of $F_i$ connected.\relax }{figure.caption.6}{}}
\@writefile{lof}{\contentsline {figure}{\numberline {9}{\ignorespaces Example of step 1 projection in 3D.\relax }}{5}{figure.caption.7}}
\newlabel{projection2}{{9}{5}{Example of step 1 projection in 3D.\relax }{figure.caption.7}{}}
\@writefile{toc}{\contentsline {subsection}{\numberline {2.3}Step 2: Partition the space into xy-parallel slabs}{5}{subsection.2.3}}
\@writefile{lof}{\contentsline {figure}{\numberline {10}{\ignorespaces Floor projection of the 3D faces and lift of the facets of the floor arrangement on the 3D faces.\relax }}{6}{figure.caption.8}}
\newlabel{step2_1}{{10}{6}{Floor projection of the 3D faces and lift of the facets of the floor arrangement on the 3D faces.\relax }{figure.caption.8}{}}
\@writefile{lof}{\contentsline {figure}{\numberline {11}{\ignorespaces Representation of thick and thin slabs.\relax }}{6}{figure.caption.9}}
\newlabel{slabs}{{11}{6}{Representation of thick and thin slabs.\relax }{figure.caption.9}{}}
\@writefile{lof}{\contentsline {figure}{\numberline {12}{\ignorespaces Cut faces by the walls between slabs.\relax }}{6}{figure.caption.9}}
\newlabel{step2_3}{{12}{6}{Cut faces by the walls between slabs.\relax }{figure.caption.9}{}}
\@writefile{toc}{\contentsline {subsection}{\numberline {2.4}Step 3a: 2D snap in thin slab to prepare triangulation}{6}{subsection.2.4}}
\newlabel{step3a_1}{{13a}{7}{Faces in a thin slab. \newline \newline \relax }{figure.caption.10}{}}
\newlabel{sub@step3a_1}{{a}{7}{Faces in a thin slab. \newline \newline \relax }{figure.caption.10}{}}
\newlabel{step3a_3}{{13b}{7}{Some vertices are created by the projection and 2D snap in the \newline middle plane.\relax }{figure.caption.10}{}}
\newlabel{sub@step3a_3}{{b}{7}{Some vertices are created by the projection and 2D snap in the \newline middle plane.\relax }{figure.caption.10}{}}
\newlabel{step3a_4}{{13c}{7}{We lift these vertices on their original edges. \newline \relax }{figure.caption.10}{}}
\newlabel{sub@step3a_4}{{c}{7}{We lift these vertices on their original edges. \newline \relax }{figure.caption.10}{}}
\@writefile{lof}{\contentsline {figure}{\numberline {13}{\ignorespaces Step 3a.\relax }}{7}{figure.caption.10}}
\@writefile{toc}{\contentsline {subsection}{\numberline {2.5}Step 3b: Triangulation of the faces in thick slabs }{7}{subsection.2.5}}
\@writefile{lof}{\contentsline {figure}{\numberline {14}{\ignorespaces Faces in a thick slab.\relax }}{7}{figure.caption.11}}
\newlabel{step3b_1}{{14}{7}{Faces in a thick slab.\relax }{figure.caption.11}{}}
\@writefile{lof}{\contentsline {figure}{\numberline {15}{\ignorespaces We triangulate faces by top-left to bottom-right diagonals.\relax }}{7}{figure.caption.11}}
\newlabel{step3b_2}{{15}{7}{We triangulate faces by top-left to bottom-right diagonals.\relax }{figure.caption.11}{}}
\citation{devillers:hal-01727375}
\citation{devillers:hal-01727375}
\citation{devillers:hal-01727375}
\citation{devillers:hal-01727375}
\@writefile{lof}{\contentsline {figure}{\numberline {16}{\ignorespaces Trapeze triangulations with vertices induced by adjacent thin slabs.\relax }}{8}{figure.caption.12}}
\newlabel{step3b_3}{{16}{8}{Trapeze triangulations with vertices induced by adjacent thin slabs.\relax }{figure.caption.12}{}}
\@writefile{lof}{\contentsline {figure}{\numberline {17}{\ignorespaces We can round safely.\relax }}{8}{figure.caption.12}}
\newlabel{step3b_4}{{17}{8}{We can round safely.\relax }{figure.caption.12}{}}
\@writefile{toc}{\contentsline {subsection}{\numberline {2.6}Correctness and complexity}{8}{subsection.2.6}}
\citation{cgal:eb-19a}
\citation{cgal:k-hds-19a}
\citation{cgal:eb-19a}
\citation{cgal:eb-19a}
\citation{guibas1998rounding}
\@writefile{toc}{\contentsline {section}{\numberline {3}Algorithm implementation}{9}{section.3}}
\@writefile{lof}{\contentsline {figure}{\numberline {18}{\ignorespaces Representation of the halfedge Data Structure. Image from CGAL Documentation \cite  {cgal:eb-19a}.\relax }}{9}{figure.caption.13}}
\newlabel{halfedge}{{18}{9}{Representation of the halfedge Data Structure. Image from CGAL Documentation \cite {cgal:eb-19a}.\relax }{figure.caption.13}{}}
\@writefile{toc}{\contentsline {subsection}{\numberline {3.1}2D Snap Rounding Implementation}{9}{subsection.3.1}}
\@writefile{lof}{\contentsline {figure}{\numberline {19}{\ignorespaces Factor acceleration of our implementation compared to CGAL implementation. The input is $n$ random segments of length $O(\sqrt  {n})$.\relax }}{10}{figure.caption.14}}
\newlabel{factor}{{19}{10}{Factor acceleration of our implementation compared to CGAL implementation. The input is $n$ random segments of length $O(\sqrt {n})$.\relax }{figure.caption.14}{}}
\@writefile{lof}{\contentsline {figure}{\numberline {20}{\ignorespaces Factor acceleration of our implementation compared to CGAL implementation. The input is $n$ random segments of length $O(1)$.\relax }}{10}{figure.caption.14}}
\newlabel{factor2}{{20}{10}{Factor acceleration of our implementation compared to CGAL implementation. The input is $n$ random segments of length $O(1)$.\relax }{figure.caption.14}{}}
\@writefile{toc}{\contentsline {subsection}{\numberline {3.2}Step 1 Implementation}{10}{subsection.3.2}}
\@writefile{toc}{\contentsline {subsubsection}{\numberline {3.2.1}Difficulties}{10}{subsubsection.3.2.1}}
\@writefile{lof}{\contentsline {figure}{\numberline {21}{\ignorespaces Example of projection of Step 1 (the connected walls are not drawn). We can see a hole in the middle triangle and a quite complicated form of the top triangle (there is a tooth inside the red circle).\relax }}{11}{figure.caption.15}}
\newlabel{diff}{{21}{11}{Example of projection of Step 1 (the connected walls are not drawn). We can see a hole in the middle triangle and a quite complicated form of the top triangle (there is a tooth inside the red circle).\relax }{figure.caption.15}{}}
\@writefile{toc}{\contentsline {subsubsection}{\numberline {3.2.2}Step 1 in a Thick Slab}{11}{subsubsection.3.2.2}}
\newlabel{algo2}{{3.2.2}{11}{Step 1 in a Thick Slab}{subsubsection.3.2.2}{}}
\citation{devillers:hal-01727375}
\citation{Bentley}
\@writefile{lof}{\contentsline {figure}{\numberline {22}{\ignorespaces  We calculate the intersections of $plane_A$ with $plane_B \pm \cc@accent {"717E}{\jmath }$ and of $plane_A \pm \cc@accent {"717E}{\jmath }$ with $plane_B$. Then we cut A and B by these 2 lines.\relax }}{12}{figure.caption.16}}
\newlabel{pre1}{{22}{12}{We calculate the intersections of $plane_A$ with $plane_B \pm \vec {\jmath }$ and of $plane_A \pm \vec {\jmath }$ with $plane_B$. Then we cut A and B by these 2 lines.\relax }{figure.caption.16}{}}
\@writefile{lof}{\contentsline {figure}{\numberline {23}{\ignorespaces   After Step 2, we project the faces in \textit  {thick slab.}\relax }}{12}{figure.caption.17}}
\newlabel{pre2}{{23}{12}{After Step 2, we project the faces in \textit {thick slab.}\relax }{figure.caption.17}{}}
\newlabel{pre3}{{23}{12}{After Step 2, we project the faces in \textit {thick slab.}\relax }{figure.caption.17}{}}
\@writefile{lof}{\contentsline {figure}{\numberline {24}{\ignorespaces The only 2 possible cases of faces projection on the back wall inside a \textit  {thick slab}.\relax }}{12}{figure.caption.18}}
\newlabel{cases}{{24}{12}{The only 2 possible cases of faces projection on the back wall inside a \textit {thick slab}.\relax }{figure.caption.18}{}}
\@writefile{toc}{\contentsline {subsubsection}{\numberline {3.2.3}Segment Tree}{13}{subsubsection.3.2.3}}
\newlabel{tree}{{3.2.3}{13}{Segment Tree}{subsubsection.3.2.3}{}}
\@writefile{toc}{\contentsline {subsection}{\numberline {3.3}Step 2 implementation}{13}{subsection.3.3}}
\@writefile{toc}{\contentsline {subsubsection}{\numberline {3.3.1}Arrangement on the floor}{13}{subsubsection.3.3.1}}
\@writefile{lof}{\contentsline {figure}{\numberline {25}{\ignorespaces  (a) We color segments by the indexes of the adjacent faces (here segments have only one adjacent triangle). (b) (c) For the blue triangle, we color the facet adjacent to the remember segment. (d) (e) (f) If an edge of the boundary doesn't have the same color as the facet considered, we color the facet on the other side and repeat for this facet.\relax }}{13}{figure.caption.19}}
\newlabel{1}{{25}{13}{(a) We color segments by the indexes of the adjacent faces (here segments have only one adjacent triangle). (b) (c) For the blue triangle, we color the facet adjacent to the remember segment. (d) (e) (f) If an edge of the boundary doesn't have the same color as the facet considered, we color the facet on the other side and repeat for this facet.\relax }{figure.caption.19}{}}
\@writefile{toc}{\contentsline {subsubsection}{\numberline {3.3.2}Lift the arrangement}{13}{subsubsection.3.3.2}}
\@writefile{toc}{\contentsline {subsection}{\numberline {3.4}Efficient cut of Faces}{14}{subsection.3.4}}
\@writefile{lof}{\contentsline {figure}{\numberline {26}{\ignorespaces (a) We want to cut a face by walls of slabs. (b) We start from the left vertex, and we target the wall on right of this vertex.(c) (d) (g) We were going to go through the edges clockwise.(e) (f) (h) If the edge goes from left to right, and if it crosses the target wall, we split the edge, stack the created vertex and target the next wall.(i) (m) If the edge goes from right to left, we target the previous wall.(j) (l) (n) If it crosses the target wall, we split the edge, target the previous wall and (k) (l) (o) we link the created vertex with the top of the stack.\relax }}{15}{figure.caption.20}}
\newlabel{cut}{{26}{15}{(a) We want to cut a face by walls of slabs. (b) We start from the left vertex, and we target the wall on right of this vertex.(c) (d) (g) We were going to go through the edges clockwise.(e) (f) (h) If the edge goes from left to right, and if it crosses the target wall, we split the edge, stack the created vertex and target the next wall.(i) (m) If the edge goes from right to left, we target the previous wall.(j) (l) (n) If it crosses the target wall, we split the edge, target the previous wall and (k) (l) (o) we link the created vertex with the top of the stack.\relax }{figure.caption.20}{}}
\@writefile{toc}{\contentsline {section}{\numberline {4}Result of the implementation}{15}{section.4}}
\citation{Thingi10K}
\@writefile{lof}{\contentsline {figure}{\numberline {27}{\ignorespaces Test of the algorithm on a plane. The output has a voxelated appearance.\relax }}{16}{figure.caption.21}}
\newlabel{plane}{{27}{16}{Test of the algorithm on a plane. The output has a voxelated appearance.\relax }{figure.caption.21}{}}
\citation{Zhou:2016:MASG}
\@writefile{lof}{\contentsline {figure}{\numberline {28}{\ignorespaces Number of vertices of the Backwall Arrangement function of number of vertices of the input in log-log scale. The points are noisy but we interpolate a line with slipe of 1.13 and value on 0 of 2.15 so we have $y= 10^b * x^a=141 n^{1.13}$\relax }}{17}{figure.caption.22}}
\newlabel{plot}{{28}{17}{Number of vertices of the Backwall Arrangement function of number of vertices of the input in log-log scale. The points are noisy but we interpolate a line with slipe of 1.13 and value on 0 of 2.15 so we have $y= 10^b * x^a=141 n^{1.13}$\relax }{figure.caption.22}{}}
\@writefile{toc}{\contentsline {section}{\numberline {5}Improvement of the algorithm and the implementation}{17}{section.5}}
\newlabel{perspective}{{5}{17}{Improvement of the algorithm and the implementation}{section.5}{}}
\@writefile{toc}{\contentsline {subsection}{\numberline {5.1}Lazy algorithm}{17}{subsection.5.1}}
\@writefile{lof}{\contentsline {figure}{\numberline {29}{\ignorespaces  (a) For a scene. (b) We find some problematic elements. (c) They are isolated in \textit  {work slabs}. (d) We cut through the slab walls and triangulate the faces. (e) (f) If there is a problem with the new edges, go back, double the width of \textit  {work slabs} and try again. (g) (h) If there are no problems, we make the heavy algorithm in \textit  {work slabs} and trivial rounding on the outside.\relax }}{18}{figure.caption.23}}
\newlabel{work}{{29}{18}{(a) For a scene. (b) We find some problematic elements. (c) They are isolated in \textit {work slabs}. (d) We cut through the slab walls and triangulate the faces. (e) (f) If there is a problem with the new edges, go back, double the width of \textit {work slabs} and try again. (g) (h) If there are no problems, we make the heavy algorithm in \textit {work slabs} and trivial rounding on the outside.\relax }{figure.caption.23}{}}
\@writefile{toc}{\contentsline {subsection}{\numberline {5.2}Test of proper intersection}{18}{subsection.5.2}}
\newlabel{checker}{{5.2}{18}{Test of proper intersection}{subsection.5.2}{}}
\citation{devillers:hal-01727375}
\citation{cgal:lazy}
\@writefile{toc}{\contentsline {subsection}{\numberline {5.3}Lifting only in \textit  {thick slabs}}{19}{subsection.5.3}}
\@writefile{toc}{\contentsline {subsection}{\numberline {5.4}Avoid exact calculations}{19}{subsection.5.4}}
\@writefile{lof}{\contentsline {figure}{\numberline {30}{\ignorespaces  Example where exact computations is always needed.\relax }}{19}{figure.caption.24}}
\newlabel{exact1}{{30}{19}{Example where exact computations is always needed.\relax }{figure.caption.24}{}}
\@writefile{lof}{\contentsline {figure}{\numberline {31}{\ignorespaces  A way to avoid exact computation. \newline  \relax }}{19}{figure.caption.24}}
\newlabel{exact2}{{31}{19}{A way to avoid exact computation. \newline \relax }{figure.caption.24}{}}
\@writefile{toc}{\contentsline {section}{\numberline {6}Summary of the work performed}{19}{section.6}}
\bibstyle{plain}
\bibdata{biblio}
\bibcite{Bentley}{1}
\bibcite{de2007intersection}{2}
\bibcite{devillers:hal-01727375}{3}
\bibcite{fortune1999vertex}{4}
\bibcite{goodrich1997snap}{5}
\bibcite{greene1986finite}{6}
\bibcite{guibas1998rounding}{7}
\bibcite{halperin2002iterated}{8}
\bibcite{cgal:lazy}{9}
\bibcite{Hershberger2008}{10}
\bibcite{hershberger2013stable}{11}
\bibcite{hobby1999practical}{12}
\bibcite{cgal:k-hds-19a}{13}
\bibcite{milenkovic90a}{14}
\@writefile{toc}{\contentsline {section}{\numberline {7}Conclusions and Perspectives}{20}{section.7}}
\bibcite{PACKER2008231}{15}
\bibcite{cgal:eb-19a}{16}
\bibcite{Zhou:2016:MASG}{17}
\bibcite{Thingi10K}{18}
\@writefile{toc}{\contentsline {part}{Appendix}{22}{part*.25}}
\@writefile{toc}{\contentsline {section}{\numberline {A}Polygon difference}{22}{appendix.A}}
\newlabel{appendix:A}{{A}{22}{Polygon difference}{appendix.A}{}}
\@writefile{toc}{\contentsline {section}{\numberline {B}Halfedge Data structure}{22}{appendix.B}}
\newlabel{appendix:B}{{B}{22}{Halfedge Data structure}{appendix.B}{}}
\@writefile{lof}{\contentsline {figure}{\numberline {32}{\ignorespaces The three possible modifications of the Halfedge Data Structure.\relax }}{22}{figure.caption.26}}
\@writefile{toc}{\contentsline {section}{\numberline {C}Manage degeneration created by Step 1}{22}{appendix.C}}
\newlabel{D}{{C}{22}{Manage degeneration created by Step 1}{appendix.C}{}}
