\headcommand {\slideentry {0}{0}{1}{1/1}{}{0}}
\headcommand {\beamer@framepages {1}{1}}
\headcommand {\beamer@sectionpages {1}{1}}
\headcommand {\beamer@subsectionpages {1}{1}}
\headcommand {\sectionentry {1}{Introduction}{2}{Introduction}{0}}
\headcommand {\slideentry {1}{0}{1}{2/2}{}{0}}
\headcommand {\beamer@framepages {2}{2}}
\headcommand {\beamer@subsectionpages {2}{2}}
\headcommand {\beamer@subsectionentry {0}{1}{1}{3}{Need for 3D Snap Rounding}}
\headcommand {\slideentry {1}{1}{1}{3/5}{Need for 3D Snap Rounding}{0}}
\headcommand {\beamer@framepages {3}{5}}
\headcommand {\beamer@subsectionpages {3}{5}}
\headcommand {\beamer@subsectionentry {0}{1}{2}{6}{State of the art}}
\headcommand {\slideentry {1}{2}{1}{6/6}{State of the art}{0}}
\headcommand {\beamer@framepages {6}{6}}
\headcommand {\beamer@subsectionpages {6}{6}}
\headcommand {\beamer@subsectionentry {0}{1}{3}{7}{Formal Statement}}
\headcommand {\slideentry {1}{3}{1}{7/11}{Formal Statement}{0}}
\headcommand {\beamer@framepages {7}{11}}
\headcommand {\beamer@subsectionpages {7}{11}}
\headcommand {\beamer@subsectionentry {0}{1}{4}{12}{2D Snap Rounding}}
\headcommand {\slideentry {1}{4}{1}{12/19}{2D Snap Rounding}{0}}
\headcommand {\beamer@framepages {12}{19}}
\headcommand {\beamer@subsectionpages {12}{19}}
\headcommand {\beamer@subsectionentry {0}{1}{5}{20}{3D Snap Rounding Difficulties}}
\headcommand {\slideentry {1}{5}{1}{20/25}{3D Snap Rounding Difficulties}{0}}
\headcommand {\beamer@framepages {20}{25}}
\headcommand {\beamer@sectionpages {2}{25}}
\headcommand {\beamer@subsectionpages {20}{25}}
\headcommand {\sectionentry {2}{3D Snap Rounding Algorithm}{26}{3D Snap Rounding Algorithm}{0}}
\headcommand {\slideentry {2}{0}{1}{26/26}{}{0}}
\headcommand {\beamer@framepages {26}{26}}
\headcommand {\slideentry {2}{0}{2}{27/27}{}{0}}
\headcommand {\beamer@framepages {27}{27}}
\headcommand {\slideentry {2}{0}{3}{28/30}{}{0}}
\headcommand {\beamer@framepages {28}{30}}
\headcommand {\slideentry {2}{0}{4}{31/31}{}{0}}
\headcommand {\beamer@framepages {31}{31}}
\headcommand {\slideentry {2}{0}{5}{32/36}{}{0}}
\headcommand {\beamer@framepages {32}{36}}
\headcommand {\slideentry {2}{0}{6}{37/38}{}{0}}
\headcommand {\beamer@framepages {37}{38}}
\headcommand {\slideentry {2}{0}{7}{39/40}{}{0}}
\headcommand {\beamer@framepages {39}{40}}
\headcommand {\slideentry {2}{0}{8}{41/46}{}{0}}
\headcommand {\beamer@framepages {41}{46}}
\headcommand {\beamer@sectionpages {26}{46}}
\headcommand {\beamer@subsectionpages {26}{46}}
\headcommand {\sectionentry {3}{Implementation Issue}{47}{Implementation Issue}{0}}
\headcommand {\slideentry {3}{0}{1}{47/47}{}{0}}
\headcommand {\beamer@framepages {47}{47}}
\headcommand {\beamer@subsectionpages {47}{47}}
\headcommand {\beamer@subsectionentry {0}{3}{1}{48}{CGAL Library}}
\headcommand {\slideentry {3}{1}{1}{48/51}{CGAL Library}{0}}
\headcommand {\beamer@framepages {48}{51}}
\headcommand {\beamer@subsectionpages {48}{51}}
\headcommand {\beamer@subsectionentry {0}{3}{2}{52}{2D Snap Rounding}}
\headcommand {\slideentry {3}{2}{1}{52/53}{2D Snap Rounding}{0}}
\headcommand {\beamer@framepages {52}{53}}
\headcommand {\beamer@subsectionpages {52}{53}}
\headcommand {\beamer@subsectionentry {0}{3}{3}{54}{Halfedge data structure}}
\headcommand {\slideentry {3}{3}{1}{54/54}{Halfedge data structure}{0}}
\headcommand {\beamer@framepages {54}{54}}
\headcommand {\beamer@subsectionpages {54}{54}}
\headcommand {\beamer@subsectionentry {0}{3}{4}{55}{Arrangement on the floor}}
\headcommand {\slideentry {3}{4}{1}{55/61}{Arrangement on the floor}{0}}
\headcommand {\beamer@framepages {55}{61}}
\headcommand {\beamer@sectionpages {47}{61}}
\headcommand {\beamer@subsectionpages {55}{61}}
\headcommand {\sectionentry {4}{Algorithm Issue}{62}{Algorithm Issue}{0}}
\headcommand {\slideentry {4}{0}{1}{62/62}{}{0}}
\headcommand {\beamer@framepages {62}{62}}
\headcommand {\beamer@subsectionpages {62}{62}}
\headcommand {\beamer@subsectionentry {0}{4}{1}{63}{Step 1 difficulties}}
\headcommand {\slideentry {4}{1}{1}{63/64}{Step 1 difficulties}{0}}
\headcommand {\beamer@framepages {63}{64}}
\headcommand {\beamer@subsectionpages {63}{64}}
\headcommand {\beamer@subsectionentry {0}{4}{2}{65}{Step 1 in thick slab}}
\headcommand {\slideentry {4}{2}{1}{65/68}{Step 1 in thick slab}{0}}
\headcommand {\beamer@framepages {65}{68}}
\headcommand {\slideentry {4}{2}{2}{69/69}{Step 1 in thick slab}{0}}
\headcommand {\beamer@framepages {69}{69}}
\headcommand {\beamer@sectionpages {62}{69}}
\headcommand {\beamer@subsectionpages {65}{69}}
\headcommand {\sectionentry {5}{Result}{70}{Result}{0}}
\headcommand {\slideentry {5}{0}{1}{70/70}{}{0}}
\headcommand {\beamer@framepages {70}{70}}
\headcommand {\slideentry {5}{0}{2}{71/73}{}{0}}
\headcommand {\beamer@framepages {71}{73}}
\headcommand {\slideentry {5}{0}{3}{74/74}{}{0}}
\headcommand {\beamer@framepages {74}{74}}
\headcommand {\slideentry {5}{0}{4}{75/75}{}{0}}
\headcommand {\beamer@framepages {75}{75}}
\headcommand {\slideentry {5}{0}{5}{76/76}{}{0}}
\headcommand {\beamer@framepages {76}{76}}
\headcommand {\slideentry {5}{0}{6}{77/77}{}{0}}
\headcommand {\beamer@framepages {77}{77}}
\headcommand {\beamer@sectionpages {70}{77}}
\headcommand {\beamer@subsectionpages {70}{77}}
\headcommand {\sectionentry {6}{Possible Improvements}{78}{Possible Improvements}{0}}
\headcommand {\slideentry {6}{0}{1}{78/78}{}{0}}
\headcommand {\beamer@framepages {78}{78}}
\headcommand {\beamer@subsectionpages {78}{78}}
\headcommand {\beamer@subsectionentry {0}{6}{1}{79}{A Lazy algorithm}}
\headcommand {\slideentry {6}{1}{1}{79/80}{A Lazy algorithm}{0}}
\headcommand {\beamer@framepages {79}{80}}
\headcommand {\beamer@subsectionpages {79}{80}}
\headcommand {\beamer@subsectionentry {0}{6}{2}{81}{Other improvements}}
\headcommand {\slideentry {6}{2}{1}{81/83}{Other improvements}{0}}
\headcommand {\beamer@framepages {81}{83}}
\headcommand {\beamer@sectionpages {78}{83}}
\headcommand {\beamer@subsectionpages {81}{83}}
\headcommand {\sectionentry {7}{Conclusions}{84}{Conclusions}{0}}
\headcommand {\slideentry {7}{0}{1}{84/84}{}{0}}
\headcommand {\beamer@framepages {84}{84}}
\headcommand {\slideentry {7}{0}{2}{85/87}{}{0}}
\headcommand {\beamer@framepages {85}{87}}
\headcommand {\slideentry {7}{0}{3}{88/88}{}{0}}
\headcommand {\beamer@framepages {88}{88}}
\headcommand {\slideentry {7}{0}{4}{89/89}{}{0}}
\headcommand {\beamer@framepages {89}{89}}
\headcommand {\gdef \insertmainframenumber {37}}
\headcommand {\beamer@partpages {90}{89}}
\headcommand {\beamer@subsectionpages {90}{89}}
\headcommand {\beamer@sectionpages {90}{89}}
\headcommand {\beamer@documentpages {89}}
\headcommand {\gdef \inserttotalframenumber {37}}
