\relax 
\providecommand\hyper@newdestlabel[2]{}
\providecommand{\transparent@use}[1]{}
\providecommand\HyperFirstAtBeginDocument{\AtBeginDocument}
\HyperFirstAtBeginDocument{\ifx\hyper@anchor\@undefined
\global\let\oldcontentsline\contentsline
\gdef\contentsline#1#2#3#4{\oldcontentsline{#1}{#2}{#3}}
\global\let\oldnewlabel\newlabel
\gdef\newlabel#1#2{\newlabelxx{#1}#2}
\gdef\newlabelxx#1#2#3#4#5#6{\oldnewlabel{#1}{{#2}{#3}}}
\AtEndDocument{\ifx\hyper@anchor\@undefined
\let\contentsline\oldcontentsline
\let\newlabel\oldnewlabel
\fi}
\fi}
\global\let\hyper@last\relax 
\gdef\HyperFirstAtBeginDocument#1{#1}
\providecommand\HyField@AuxAddToFields[1]{}
\providecommand\HyField@AuxAddToCoFields[2]{}
\@writefile{nav}{\headcommand {\slideentry {0}{0}{1}{1/1}{}{0}}}
\@writefile{nav}{\headcommand {\beamer@framepages {1}{1}}}
\@writefile{toc}{\beamer@sectionintoc {1}{Introduction}{2}{0}{1}}
\@writefile{nav}{\headcommand {\beamer@sectionpages {1}{1}}}
\@writefile{nav}{\headcommand {\beamer@subsectionpages {1}{1}}}
\@writefile{nav}{\headcommand {\sectionentry {1}{Introduction}{2}{Introduction}{0}}}
\@writefile{nav}{\headcommand {\slideentry {1}{0}{1}{2/2}{}{0}}}
\@writefile{nav}{\headcommand {\beamer@framepages {2}{2}}}
\@writefile{toc}{\beamer@subsectionintoc {1}{1}{Need for 3D Snap Rounding}{3}{0}{1}}
\@writefile{nav}{\headcommand {\beamer@subsectionpages {2}{2}}}
\@writefile{nav}{\headcommand {\beamer@subsectionentry {0}{1}{1}{3}{Need for 3D Snap Rounding}}}
\providecommand*\caption@xref[2]{\@setref\relax\@undefined{#1}}
\newlabel{icosohedra}{{1}{3}{Intersection of four icosahedra. [Zhou et al. 2016]\relax }{Doc-Start}{}}
\@writefile{snm}{\beamer@slide {icosohedra}{3}}
\@writefile{nav}{\headcommand {\slideentry {1}{1}{1}{3/5}{Need for 3D Snap Rounding}{0}}}
\@writefile{nav}{\headcommand {\beamer@framepages {3}{5}}}
\@writefile{toc}{\beamer@subsectionintoc {1}{2}{State of the art}{6}{0}{1}}
\@writefile{nav}{\headcommand {\beamer@subsectionpages {3}{5}}}
\@writefile{nav}{\headcommand {\beamer@subsectionentry {0}{1}{2}{6}{State of the art}}}
\@writefile{nav}{\headcommand {\slideentry {1}{2}{1}{6/6}{State of the art}{0}}}
\@writefile{nav}{\headcommand {\beamer@framepages {6}{6}}}
\@writefile{toc}{\beamer@subsectionintoc {1}{3}{Formal Statement}{7}{0}{1}}
\@writefile{nav}{\headcommand {\beamer@subsectionpages {6}{6}}}
\@writefile{nav}{\headcommand {\beamer@subsectionentry {0}{1}{3}{7}{Formal Statement}}}
\@writefile{nav}{\headcommand {\slideentry {1}{3}{1}{7/11}{Formal Statement}{0}}}
\@writefile{nav}{\headcommand {\beamer@framepages {7}{11}}}
\transparent@use{1}
\transparent@use{1}
\transparent@use{1}
\transparent@use{1}
\@writefile{toc}{\beamer@subsectionintoc {1}{4}{2D Snap Rounding}{12}{0}{1}}
\@writefile{nav}{\headcommand {\beamer@subsectionpages {7}{11}}}
\@writefile{nav}{\headcommand {\beamer@subsectionentry {0}{1}{4}{12}{2D Snap Rounding}}}
\transparent@use{.3}
\transparent@use{1}
\transparent@use{1}
\transparent@use{1}
\transparent@use{.3}
\transparent@use{1}
\transparent@use{.3}
\transparent@use{.3}
\transparent@use{1}
\transparent@use{1}
\transparent@use{.3}
\transparent@use{1}
\transparent@use{1}
\transparent@use{.3}
\transparent@use{.3}
\transparent@use{1}
\transparent@use{1}
\transparent@use{.3}
\transparent@use{1}
\transparent@use{.3}
\transparent@use{1}
\transparent@use{.3}
\transparent@use{1}
\transparent@use{1}
\transparent@use{.3}
\transparent@use{1}
\transparent@use{.3}
\transparent@use{1}
\transparent@use{.3}
\transparent@use{1}
\transparent@use{1}
\transparent@use{.3}
\transparent@use{1}
\transparent@use{.3}
\transparent@use{1}
\transparent@use{.3}
\transparent@use{1}
\transparent@use{1}
\transparent@use{.3}
\transparent@use{1}
\transparent@use{.3}
\transparent@use{1}
\transparent@use{.3}
\transparent@use{1}
\transparent@use{1}
\transparent@use{.3}
\transparent@use{1}
\transparent@use{.3}
\transparent@use{1}
\@writefile{nav}{\headcommand {\slideentry {1}{4}{1}{12/19}{2D Snap Rounding}{0}}}
\@writefile{nav}{\headcommand {\beamer@framepages {12}{19}}}
\@writefile{toc}{\beamer@subsectionintoc {1}{5}{3D Snap Rounding Difficulties}{20}{0}{1}}
\@writefile{nav}{\headcommand {\beamer@subsectionpages {12}{19}}}
\@writefile{nav}{\headcommand {\beamer@subsectionentry {0}{1}{5}{20}{3D Snap Rounding Difficulties}}}
\@writefile{nav}{\headcommand {\slideentry {1}{5}{1}{20/25}{3D Snap Rounding Difficulties}{0}}}
\@writefile{nav}{\headcommand {\beamer@framepages {20}{25}}}
\@writefile{toc}{\beamer@sectionintoc {2}{3D Snap Rounding Algorithm}{26}{0}{2}}
\@writefile{nav}{\headcommand {\beamer@sectionpages {2}{25}}}
\@writefile{nav}{\headcommand {\beamer@subsectionpages {20}{25}}}
\@writefile{nav}{\headcommand {\sectionentry {2}{3D Snap Rounding Algorithm}{26}{3D Snap Rounding Algorithm}{0}}}
\@writefile{nav}{\headcommand {\slideentry {2}{0}{1}{26/26}{}{0}}}
\@writefile{nav}{\headcommand {\beamer@framepages {26}{26}}}
\@writefile{nav}{\headcommand {\slideentry {2}{0}{2}{27/27}{}{0}}}
\@writefile{nav}{\headcommand {\beamer@framepages {27}{27}}}
\@writefile{nav}{\headcommand {\slideentry {2}{0}{3}{28/30}{}{0}}}
\@writefile{nav}{\headcommand {\beamer@framepages {28}{30}}}
\@writefile{nav}{\headcommand {\slideentry {2}{0}{4}{31/31}{}{0}}}
\@writefile{nav}{\headcommand {\beamer@framepages {31}{31}}}
\transparent@use{.3}
\transparent@use{1}
\transparent@use{.3}
\transparent@use{1}
\transparent@use{.3}
\transparent@use{1}
\transparent@use{.3}
\transparent@use{1}
\transparent@use{.3}
\transparent@use{1}
\transparent@use{.3}
\transparent@use{1}
\transparent@use{.3}
\transparent@use{1}
\transparent@use{.3}
\transparent@use{1}
\transparent@use{.3}
\transparent@use{1}
\transparent@use{.3}
\transparent@use{1}
\@writefile{nav}{\headcommand {\slideentry {2}{0}{5}{32/36}{}{0}}}
\@writefile{nav}{\headcommand {\beamer@framepages {32}{36}}}
\@writefile{nav}{\headcommand {\slideentry {2}{0}{6}{37/38}{}{0}}}
\@writefile{nav}{\headcommand {\beamer@framepages {37}{38}}}
\@writefile{nav}{\headcommand {\slideentry {2}{0}{7}{39/40}{}{0}}}
\@writefile{nav}{\headcommand {\beamer@framepages {39}{40}}}
\@writefile{nav}{\headcommand {\slideentry {2}{0}{8}{41/46}{}{0}}}
\@writefile{nav}{\headcommand {\beamer@framepages {41}{46}}}
\@writefile{toc}{\beamer@sectionintoc {3}{Implementation Issue}{47}{0}{3}}
\@writefile{nav}{\headcommand {\beamer@sectionpages {26}{46}}}
\@writefile{nav}{\headcommand {\beamer@subsectionpages {26}{46}}}
\@writefile{nav}{\headcommand {\sectionentry {3}{Implementation Issue}{47}{Implementation Issue}{0}}}
\@writefile{nav}{\headcommand {\slideentry {3}{0}{1}{47/47}{}{0}}}
\@writefile{nav}{\headcommand {\beamer@framepages {47}{47}}}
\@writefile{toc}{\beamer@subsectionintoc {3}{1}{CGAL Library}{48}{0}{3}}
\@writefile{nav}{\headcommand {\beamer@subsectionpages {47}{47}}}
\@writefile{nav}{\headcommand {\beamer@subsectionentry {0}{3}{1}{48}{CGAL Library}}}
\@writefile{nav}{\headcommand {\slideentry {3}{1}{1}{48/51}{CGAL Library}{0}}}
\@writefile{nav}{\headcommand {\beamer@framepages {48}{51}}}
\@writefile{toc}{\beamer@subsectionintoc {3}{2}{2D Snap Rounding}{52}{0}{3}}
\@writefile{nav}{\headcommand {\beamer@subsectionpages {48}{51}}}
\@writefile{nav}{\headcommand {\beamer@subsectionentry {0}{3}{2}{52}{2D Snap Rounding}}}
\@writefile{nav}{\headcommand {\slideentry {3}{2}{1}{52/53}{2D Snap Rounding}{0}}}
\@writefile{nav}{\headcommand {\beamer@framepages {52}{53}}}
\@writefile{toc}{\beamer@subsectionintoc {3}{3}{Halfedge data structure}{54}{0}{3}}
\@writefile{nav}{\headcommand {\beamer@subsectionpages {52}{53}}}
\@writefile{nav}{\headcommand {\beamer@subsectionentry {0}{3}{3}{54}{Halfedge data structure}}}
\@writefile{nav}{\headcommand {\slideentry {3}{3}{1}{54/54}{Halfedge data structure}{0}}}
\@writefile{nav}{\headcommand {\beamer@framepages {54}{54}}}
\@writefile{toc}{\beamer@subsectionintoc {3}{4}{Arrangement on the floor}{55}{0}{3}}
\@writefile{nav}{\headcommand {\beamer@subsectionpages {54}{54}}}
\@writefile{nav}{\headcommand {\beamer@subsectionentry {0}{3}{4}{55}{Arrangement on the floor}}}
\@writefile{nav}{\headcommand {\slideentry {3}{4}{1}{55/61}{Arrangement on the floor}{0}}}
\@writefile{nav}{\headcommand {\beamer@framepages {55}{61}}}
\@writefile{toc}{\beamer@sectionintoc {4}{Algorithm Issue}{62}{0}{4}}
\@writefile{nav}{\headcommand {\beamer@sectionpages {47}{61}}}
\@writefile{nav}{\headcommand {\beamer@subsectionpages {55}{61}}}
\@writefile{nav}{\headcommand {\sectionentry {4}{Algorithm Issue}{62}{Algorithm Issue}{0}}}
\@writefile{nav}{\headcommand {\slideentry {4}{0}{1}{62/62}{}{0}}}
\@writefile{nav}{\headcommand {\beamer@framepages {62}{62}}}
\@writefile{toc}{\beamer@subsectionintoc {4}{1}{Step 1 difficulties}{63}{0}{4}}
\@writefile{nav}{\headcommand {\beamer@subsectionpages {62}{62}}}
\@writefile{nav}{\headcommand {\beamer@subsectionentry {0}{4}{1}{63}{Step 1 difficulties}}}
\@writefile{nav}{\headcommand {\slideentry {4}{1}{1}{63/64}{Step 1 difficulties}{0}}}
\@writefile{nav}{\headcommand {\beamer@framepages {63}{64}}}
\@writefile{toc}{\beamer@subsectionintoc {4}{2}{Step 1 in thick slab}{65}{0}{4}}
\@writefile{nav}{\headcommand {\beamer@subsectionpages {63}{64}}}
\@writefile{nav}{\headcommand {\beamer@subsectionentry {0}{4}{2}{65}{Step 1 in thick slab}}}
\@writefile{nav}{\headcommand {\slideentry {4}{2}{1}{65/68}{Step 1 in thick slab}{0}}}
\@writefile{nav}{\headcommand {\beamer@framepages {65}{68}}}
\@writefile{nav}{\headcommand {\slideentry {4}{2}{2}{69/69}{Step 1 in thick slab}{0}}}
\@writefile{nav}{\headcommand {\beamer@framepages {69}{69}}}
\@writefile{toc}{\beamer@sectionintoc {5}{Result}{70}{0}{5}}
\@writefile{nav}{\headcommand {\beamer@sectionpages {62}{69}}}
\@writefile{nav}{\headcommand {\beamer@subsectionpages {65}{69}}}
\@writefile{nav}{\headcommand {\sectionentry {5}{Result}{70}{Result}{0}}}
\@writefile{nav}{\headcommand {\slideentry {5}{0}{1}{70/70}{}{0}}}
\@writefile{nav}{\headcommand {\beamer@framepages {70}{70}}}
\@writefile{nav}{\headcommand {\slideentry {5}{0}{2}{71/73}{}{0}}}
\@writefile{nav}{\headcommand {\beamer@framepages {71}{73}}}
\@writefile{nav}{\headcommand {\slideentry {5}{0}{3}{74/74}{}{0}}}
\@writefile{nav}{\headcommand {\beamer@framepages {74}{74}}}
\@writefile{nav}{\headcommand {\slideentry {5}{0}{4}{75/75}{}{0}}}
\@writefile{nav}{\headcommand {\beamer@framepages {75}{75}}}
\@writefile{nav}{\headcommand {\slideentry {5}{0}{5}{76/76}{}{0}}}
\@writefile{nav}{\headcommand {\beamer@framepages {76}{76}}}
\@writefile{nav}{\headcommand {\slideentry {5}{0}{6}{77/77}{}{0}}}
\@writefile{nav}{\headcommand {\beamer@framepages {77}{77}}}
\@writefile{toc}{\beamer@sectionintoc {6}{Possible Improvements}{78}{0}{6}}
\@writefile{nav}{\headcommand {\beamer@sectionpages {70}{77}}}
\@writefile{nav}{\headcommand {\beamer@subsectionpages {70}{77}}}
\@writefile{nav}{\headcommand {\sectionentry {6}{Possible Improvements}{78}{Possible Improvements}{0}}}
\@writefile{nav}{\headcommand {\slideentry {6}{0}{1}{78/78}{}{0}}}
\@writefile{nav}{\headcommand {\beamer@framepages {78}{78}}}
\@writefile{toc}{\beamer@subsectionintoc {6}{1}{A Lazy algorithm}{79}{0}{6}}
\@writefile{nav}{\headcommand {\beamer@subsectionpages {78}{78}}}
\@writefile{nav}{\headcommand {\beamer@subsectionentry {0}{6}{1}{79}{A Lazy algorithm}}}
\@writefile{nav}{\headcommand {\slideentry {6}{1}{1}{79/80}{A Lazy algorithm}{0}}}
\@writefile{nav}{\headcommand {\beamer@framepages {79}{80}}}
\@writefile{toc}{\beamer@subsectionintoc {6}{2}{Other improvements}{81}{0}{6}}
\@writefile{nav}{\headcommand {\beamer@subsectionpages {79}{80}}}
\@writefile{nav}{\headcommand {\beamer@subsectionentry {0}{6}{2}{81}{Other improvements}}}
\@writefile{nav}{\headcommand {\slideentry {6}{2}{1}{81/83}{Other improvements}{0}}}
\@writefile{nav}{\headcommand {\beamer@framepages {81}{83}}}
\@writefile{toc}{\beamer@sectionintoc {7}{Conclusions}{84}{0}{7}}
\@writefile{nav}{\headcommand {\beamer@sectionpages {78}{83}}}
\@writefile{nav}{\headcommand {\beamer@subsectionpages {81}{83}}}
\@writefile{nav}{\headcommand {\sectionentry {7}{Conclusions}{84}{Conclusions}{0}}}
\@writefile{nav}{\headcommand {\slideentry {7}{0}{1}{84/84}{}{0}}}
\@writefile{nav}{\headcommand {\beamer@framepages {84}{84}}}
\@writefile{nav}{\headcommand {\slideentry {7}{0}{2}{85/87}{}{0}}}
\@writefile{nav}{\headcommand {\beamer@framepages {85}{87}}}
\@writefile{nav}{\headcommand {\slideentry {7}{0}{3}{88/88}{}{0}}}
\@writefile{nav}{\headcommand {\beamer@framepages {88}{88}}}
\@writefile{nav}{\headcommand {\slideentry {7}{0}{4}{89/89}{}{0}}}
\@writefile{nav}{\headcommand {\beamer@framepages {89}{89}}}
\@writefile{nav}{\headcommand {\gdef \insertmainframenumber {37}}}
\@writefile{nav}{\headcommand {\beamer@partpages {90}{89}}}
\@writefile{nav}{\headcommand {\beamer@subsectionpages {90}{89}}}
\@writefile{nav}{\headcommand {\beamer@sectionpages {90}{89}}}
\@writefile{nav}{\headcommand {\beamer@documentpages {89}}}
\@writefile{nav}{\headcommand {\gdef \inserttotalframenumber {37}}}
