\relax 
\providecommand\hyper@newdestlabel[2]{}
\providecommand\HyperFirstAtBeginDocument{\AtBeginDocument}
\HyperFirstAtBeginDocument{\ifx\hyper@anchor\@undefined
\global\let\oldcontentsline\contentsline
\gdef\contentsline#1#2#3#4{\oldcontentsline{#1}{#2}{#3}}
\global\let\oldnewlabel\newlabel
\gdef\newlabel#1#2{\newlabelxx{#1}#2}
\gdef\newlabelxx#1#2#3#4#5#6{\oldnewlabel{#1}{{#2}{#3}}}
\AtEndDocument{\ifx\hyper@anchor\@undefined
\let\contentsline\oldcontentsline
\let\newlabel\oldnewlabel
\fi}
\fi}
\global\let\hyper@last\relax 
\gdef\HyperFirstAtBeginDocument#1{#1}
\providecommand\HyField@AuxAddToFields[1]{}
\providecommand\HyField@AuxAddToCoFields[2]{}
\citation{greene1986finite,goodrich1997snap,guibas1998rounding,hobby1999practical,hershberger2013stable,halperin2002iterated,de2007intersection,PACKER2008231,Hershberger2008}
\citation{milenkovic90a}
\@writefile{toc}{\contentsline {section}{\numberline {1}Introduction}{1}{section.1}}
\citation{goodrich1997snap}
\citation{Milenkovic90}
\citation{fortune1999vertex}
\citation{FORTUNE1997123}
\citation{fortune1999vertex}
\citation{fortune1999vertex}
\citation{fortune1999vertex}
\citation{fortune1999vertex}
\@writefile{toc}{\contentsline {section}{\numberline {2}Preliminaries}{2}{section.2}}
\citation{devillers:hal-01586511}
\@writefile{lof}{\contentsline {figure}{\numberline {1}{\ignorespaces View inside a side wall. (a-d): The face $F_j$ is partially projected onto $F_i$ ($i<j$), i.e., $R_{ji}$ is replaced by the faces $R'_{ji}$, $X_{ji1}$ and, in (a), $X_{ji2}$. (c): $F_j$ is also partially projected onto $F_k$ ($i<k<j$). (d): If instead $i<j<k$, it is $F_k$ that is partially projected onto $F_j$.}}{3}{figure.1}}
\newlabel{fig:preprocessing}{{1}{3}{View inside a side wall. (a-d): The face $F_j$ is partially projected onto $F_i$ ($i<j$), i.e., $R_{ji}$ is replaced by the faces $R'_{ji}$, $X_{ji1}$ and, in (a), $X_{ji2}$. (c): $F_j$ is also partially projected onto $F_k$ ($i<k<j$). (d): If instead $i<j<k$, it is $F_k$ that is partially projected onto $F_j$}{figure.1}{}}
\@writefile{toc}{\contentsline {section}{\numberline {3}Algorithm}{3}{section.3}}
\newlabel{sec:algo}{{3}{3}{Algorithm}{section.3}{}}
\newlabel{thm:main}{{1}{3}{}{theorem.1}{}}
\@writefile{toc}{\contentsline {subsection}{\numberline {3.1}Main Algorithm}{4}{subsection.3.1}}
\newlabel{sec:main-algo}{{3.1}{4}{Main Algorithm}{subsection.3.1}{}}
\newlabel{item:preprocess}{{1}{4}{Main Algorithm}{Item.1}{}}
\newlabel{item:preprocess-a}{{1a}{4}{Main Algorithm}{Item.2}{}}
\newlabel{item:preprocess-b}{{1b}{4}{Main Algorithm}{Item.3}{}}
\newlabel{item:preproces-c}{{1c}{4}{Main Algorithm}{Item.4}{}}
\newlabel{item:Floor-BW-projection}{{2}{4}{Main Algorithm}{Item.5}{}}
\citation{guibas1998rounding}
\newlabel{item:triangulation}{{3}{5}{Main Algorithm}{Item.6}{}}
\newlabel{item:thin-slab}{{3a}{5}{Main Algorithm}{Item.7}{}}
\newlabel{item:thick-slab-triangulation}{{3b}{5}{Main Algorithm}{Item.8}{}}
\newlabel{item:snap}{{4}{5}{Main Algorithm}{Item.9}{}}
\newlabel{item:final}{{4}{5}{Main Algorithm}{Item.9}{}}
\@writefile{toc}{\contentsline {subsection}{\numberline {3.2}Algorithm Refinements}{5}{subsection.3.2}}
\newlabel{sec:improvments}{{3.2}{5}{Algorithm Refinements}{subsection.3.2}{}}
\@writefile{toc}{\contentsline {subsubsection}{\numberline {3.2.1}Subdivision of the faces in thin slabs (Steps\nobreakspace  {}\ref  {item:Floor-BW-projection} and \ref  {item:thin-slab})}{5}{subsubsection.3.2.1}}
\newlabel{sec:refinement-thin-slab}{{3.2.1}{5}{Subdivision of the faces in thin slabs (Steps~\ref {item:Floor-BW-projection} and \ref {item:thin-slab})}{subsubsection.3.2.1}{}}
\@writefile{lof}{\contentsline {figure}{\numberline {2}{\ignorespaces Triangulations of trapezoids in a thick slab.}}{6}{figure.2}}
\newlabel{fig:trapezoid-triangulation}{{2}{6}{Triangulations of trapezoids in a thick slab}{figure.2}{}}
\@writefile{toc}{\contentsline {subsubsection}{\numberline {3.2.2}Subdivision of the connecting faces (Steps\nobreakspace  {}\ref  {item:Floor-BW-projection} and \ref  {item:triangulation})}{6}{subsubsection.3.2.2}}
\newlabel{sec:refinement-connecting-faces}{{3.2.2}{6}{Subdivision of the connecting faces (Steps~\ref {item:Floor-BW-projection} and \ref {item:triangulation})}{subsubsection.3.2.2}{}}
\@writefile{lof}{\contentsline {figure}{\numberline {3}{\ignorespaces View in a side wall: the boundary edge $e$ of $R_{87}$ can be far way from the edge $e'=\cc@accent {"7016}{F}_1\cap (\cc@accent {"7016}{F}_2-\cc@accent {"717E}{\jmath })$ that coincides with $e$ on the back wall. }}{7}{figure.3}}
\newlabel{fig:propagating}{{3}{7}{View in a side wall: the boundary edge $e$ of $R_{87}$ can be far way from the edge $e'=\bar {F}_1\cap (\bar {F}_2-\vec {\jmath })$ that coincides with $e$ on the back wall}{figure.3}{}}
\@writefile{lof}{\contentsline {figure}{\numberline {4}{\ignorespaces Example of overlapping connecting faces $X_{31}$ and $X_{41}$, viewed inside a side wall. (a): The four input faces; (b) $F_3$ is projected onto $F_1$, then (c) $F_4$ onto $F_1$, and then (d) $F_3$ onto $F_2$. The remaining part of $F_4$ is not projected on any of the other faces.}}{7}{figure.4}}
\newlabel{fig:overlapping-connecting-faces}{{4}{7}{Example of overlapping connecting faces $X_{31}$ and $X_{41}$, viewed inside a side wall. (a): The four input faces; (b) $F_3$ is projected onto $F_1$, then (c) $F_4$ onto $F_1$, and then (d) $F_3$ onto $F_2$. The remaining part of $F_4$ is not projected on any of the other faces}{figure.4}{}}
\@writefile{toc}{\contentsline {subsection}{\numberline {3.3}Properties of the faces of $\ensuremath  {\mathcal  {P}}\xspace  _1$}{7}{subsection.3.3}}
\newlabel{sec:propP1}{{3.3}{7}{Properties of the faces of $\P _1$}{subsection.3.3}{}}
\@writefile{toc}{\contentsline {section}{\numberline {4}Proof of Correctness}{7}{section.4}}
\newlabel{sec:correcteness}{{4}{7}{Proof of Correctness}{section.4}{}}
\@writefile{toc}{\contentsline {subsection}{\numberline {4.1}Step\nobreakspace  {}\ref  {item:preprocess}}{7}{subsection.4.1}}
\newlabel{sec:preprocess}{{4.1}{7}{Step~\ref {item:preprocess}}{subsection.4.1}{}}
\newlabel{lemma:main1}{{2}{7}{}{theorem.2}{}}
\@writefile{lof}{\contentsline {figure}{\numberline {5}{\ignorespaces A connecting face $X$ induced by the common edge $e$ of $R_{31}$ and $R_{32}$, and that does not contain $e$. View inside a side wall: (a) The three input faces; (b) $F_2$ is projected onto $F_1$, then (c) $F_3$ is projected onto $F_1$ and $F_2$.}}{7}{figure.5}}
\newlabel{fig:connecting-faces-without-e}{{5}{7}{A connecting face $X$ induced by the common edge $e$ of $R_{31}$ and $R_{32}$, and that does not contain $e$. View inside a side wall: (a) The three input faces; (b) $F_2$ is projected onto $F_1$, then (c) $F_3$ is projected onto $F_1$ and $F_2$}{figure.5}{}}
\@writefile{lof}{\contentsline {figure}{\numberline {6}{\ignorespaces Counter example for the proof of the ordering property.}}{8}{figure.6}}
\newlabel{fig:ordering-prop}{{6}{8}{Counter example for the proof of the ordering property}{figure.6}{}}
\@writefile{lof}{\contentsline {figure}{\numberline {7}{\ignorespaces Back wall views of the subdivision of three triangles $T_j,T_k, T_\ell $ that project on $\cc@accent {"707E}{F}_i$ into the same triangle and such that $\cc@accent {"707E}{F}_i, T_j,T_k, T_\ell $ appear in that order along $y$.}}{9}{figure.7}}
\newlabel{fig:Subdivision-T}{{7}{9}{Back wall views of the subdivision of three triangles $T_j,T_k, T_\ell $ that project on $\tilde {F}_i$ into the same triangle and such that $\tilde {F}_i, T_j,T_k, T_\ell $ appear in that order along $y$}{figure.7}{}}
\newlabel{fig:motion-a}{{8(a)}{10}{Subfigure 8(a)}{subfigure.8.1}{}}
\newlabel{sub@fig:motion-a}{{(a)}{10}{Subfigure 8(a)\relax }{subfigure.8.1}{}}
\newlabel{fig:motion-b}{{8(b)}{10}{Subfigure 8(b)}{subfigure.8.2}{}}
\newlabel{sub@fig:motion-b}{{(b)}{10}{Subfigure 8(b)\relax }{subfigure.8.2}{}}
\newlabel{fig:motion-c}{{8(c)}{10}{Subfigure 8(c)}{subfigure.8.3}{}}
\newlabel{sub@fig:motion-c}{{(c)}{10}{Subfigure 8(c)\relax }{subfigure.8.3}{}}
\newlabel{fig:motion-d}{{8(d)}{10}{Subfigure 8(d)}{subfigure.8.4}{}}
\newlabel{sub@fig:motion-d}{{(d)}{10}{Subfigure 8(d)\relax }{subfigure.8.4}{}}
\@writefile{lof}{\contentsline {figure}{\numberline {8}{\ignorespaces Motion of $T_j$.}}{10}{figure.8}}
\newlabel{fig:motion}{{8}{10}{Motion of $T_j$}{figure.8}{}}
\@writefile{lof}{\contentsline {subfigure}{\numberline{(a)}{\ignorespaces {}}}{10}{figure.8}}
\@writefile{lof}{\contentsline {subfigure}{\numberline{(b)}{\ignorespaces {}}}{10}{figure.8}}
\@writefile{lof}{\contentsline {subfigure}{\numberline{(c)}{\ignorespaces {}}}{10}{figure.8}}
\@writefile{lof}{\contentsline {subfigure}{\numberline{(d)}{\ignorespaces {}}}{10}{figure.8}}
\citation{guibas1998rounding}
\citation{guibas1998rounding}
\newlabel{lem:avoid-old-step-2}{{3}{11}{}{theorem.3}{}}
\@writefile{toc}{\contentsline {subsection}{\numberline {4.2}Step \ref  {item:snap}}{11}{subsection.4.2}}
\newlabel{sec:snap}{{4.2}{11}{Step \ref {item:snap}}{subsection.4.2}{}}
\newlabel{th:gm98}{{4}{11}{\protect {$\!\!$\cite [Thm.~1]{guibas1998rounding}}}{theorem.4}{}}
\@writefile{lof}{\contentsline {figure}{\numberline {9}{\ignorespaces For the proof of Lemma\nobreakspace  {}\ref  {lem:avoid-old-step-2}.}}{12}{figure.9}}
\newlabel{fig:avoid-old-step-2}{{9}{12}{For the proof of Lemma~\ref {lem:avoid-old-step-2}}{figure.9}{}}
\newlabel{lem:no-intersection-thin-slab}{{5}{12}{}{theorem.5}{}}
\newlabel{lem:no-intersection-thick-slab}{{6}{13}{}{theorem.6}{}}
\@writefile{toc}{\contentsline {subsection}{\numberline {4.3}Wrap up, proof of Theorem\nobreakspace  {}\ref  {thm:main}}{13}{subsection.4.3}}
\newlabel{sec:wrapup}{{4.3}{13}{Wrap up, proof of Theorem~\ref {thm:main}}{subsection.4.3}{}}
\@writefile{lof}{\contentsline {figure}{\numberline {10}{\ignorespaces For the proof of Lemma\nobreakspace  {}\ref  {lem:no-intersection-thick-slab}.}}{14}{figure.10}}
\newlabel{fig:trapezoid-triangulation2}{{10}{14}{For the proof of Lemma~\ref {lem:no-intersection-thick-slab}}{figure.10}{}}
\@writefile{toc}{\contentsline {section}{\numberline {5}Complexity}{15}{section.5}}
\newlabel{sec:complexity}{{5}{15}{Complexity}{section.5}{}}
\@writefile{toc}{\contentsline {subsection}{\numberline {5.1}Worst-Case Complexity}{15}{subsection.5.1}}
\newlabel{sec:worst-case-complexity}{{5.1}{15}{Worst-Case Complexity}{subsection.5.1}{}}
\newlabel{prop:complexity-1}{{7}{15}{}{theorem.7}{}}
\@writefile{toc}{\contentsline {subsection}{\numberline {5.2}Complexity under some Assumptions}{16}{subsection.5.2}}
\newlabel{sec:complexity-under-assumptions}{{5.2}{16}{Complexity under some Assumptions}{subsection.5.2}{}}
\newlabel{rem:rem11}{{11}{16}{}{theorem.11}{}}
\newlabel{lem:n1/2-n1/4}{{12}{16}{}{theorem.12}{}}
\@writefile{lof}{\contentsline {figure}{\numberline {11}{\ignorespaces For the proof of Lemma\nobreakspace  {}\ref  {lem:n1/2-n1/4}.}}{17}{figure.11}}
\newlabel{fig:sqrt-n}{{11}{17}{For the proof of Lemma~\ref {lem:n1/2-n1/4}}{figure.11}{}}
\newlabel{prop:complexity-2}{{13}{17}{}{theorem.13}{}}
\newlabel{rem:practical-complexity}{{14}{17}{}{theorem.14}{}}
\citation{halperin2002iterated,PACKER2008231,hershberger2013stable}
\bibstyle{plainurl}
\bibdata{biblio}
\@writefile{toc}{\contentsline {section}{\numberline {6}Conclusion}{18}{section.6}}
